Date,Open,High,Low,Close,Adj Close,Volume
2020-03-16,140.000000,149.350006,135.000000,135.419998,135.419998,87905900
2020-03-17,140.000000,147.500000,135.000000,146.570007,146.570007,81059800
2020-03-18,138.000000,146.000000,135.020004,140.399994,140.399994,81593200
2020-03-19,142.770004,150.149994,139.000000,142.710007,142.710007,85922700
2020-03-20,146.000000,147.100006,135.860001,137.350006,137.350006,84866200
2020-03-23,137.009995,140.570007,132.520004,135.979996,135.979996,78975200
2020-03-24,143.750000,149.600006,141.270004,148.339996,148.339996,82516700
2020-03-25,148.910004,154.330002,144.440002,146.919998,146.919998,75638200
2020-03-26,148.399994,156.660004,148.369995,156.110001,156.110001,64568100
2020-03-27,151.750000,154.889999,149.199997,149.699997,149.699997,57042300
2020-03-30,152.440002,160.600006,150.009995,160.229996,160.229996,63420300
2020-03-31,159.399994,164.779999,156.559998,157.710007,157.710007,77927200
2020-04-01,153.000000,157.750000,150.820007,152.110001,152.110001,57969900
2020-04-02,151.860001,155.479996,150.360001,155.259995,155.259995,49630700
2020-04-03,155.100006,157.380005,152.190002,153.830002,153.830002,41243300